{
  "Users": [
    {
      "id": 1001,
      "fullname": "Amit Paul",
      "email": "amitpaul@theoptimum.net",
      "password": "amitpaul123",
      "group": "admin"
    },
    {
      "id": 1002,
      "fullname": "Amirul Hakim",
      "email": "amirul@theoptimum.net",
      "password": "amirul123",
      "group": "customer",
      "accountStatus": "active"
    },
    {
      "id": 1003,
      "fullname": "Asher Tan",
      "email": "asher.tan@theoptimum.net",
      "password": "fish@123",
      "group": "customer"
    },
    {
      "id": 1004,
      "fullname": "Mythireyi Prasanth",
      "email": "mythireyi@theoptimum.net",
      "password": "my1234",
      "group": "customer",
      "accountStatus": "active"
    },
    {
      "id": 1005,
      "fullname": "Bean",
      "email": "mrbean@gmail.com",
      "password": "beansofunny123",
      "group": "customer",
      "accountStatus": "active"
    },
    {
      "id": 1006,
      "fullname": "amirul robot",
      "email": "akimo360@gmail.com",
      "password": "Singapore123!",
      "group": "customer"
    },
    {
      "id": 1007,
      "fullname": "Amit Paul",
      "email": "Amit.Paul@theoptimum.net",
      "password": "Optimum@123",
      "group": "customer"
    }
  ]
}